{
	"contatos": {
		"contato": [
			{
				"nome": "Fulano da Silva",
				"telefone": {
					"ddd": "11",
					"numero": "1234-1231",
					"ramal": "23"
				},
				"departamento": "Gerenciamento de Redes",
				"empresa": "Metrô"
			},
			{
				"nome": "Beltrano de Azevedo",
				"telefone": [
					{
						"ddd": "11",
						"numero": "4564-1345"
					},
					{
						"ddd": "11",
						"numero": "8549-5234"
					}
				],
				"departamento": "Tecnologia da Informação",
				"empresa": "Itaú Telecom"
			},
			{
				"nome": "Ciclano de Souza",
				"telefone": {
					"ddd": "11",
					"numero": "8978-1345"
				},
				"departamento": "Contabilidade",
				"empresa": "Bradesco"
			},
			{
				"nome": "Xiquinha da Silva",
				"telefone": {
					"ddd": "11",
					"numero": "98435-1345"
				},
				"departamento": "Vendas",
				"empresa": "Autonoma"
			}
		]
	}
}